{
  "keys": [
    {
      "kty": "RSA",
      "alg": "RS256",
      "e": "AQAB",
      "kid": "CSU4peApjg71XFEHP16vbl0B7CnQf3Z1Q5-DAlfwL9Q",
      "use": "sig",
      "n": "r5wBIySwlS8sUyHDKq85ZYUCZdrSiWxbU9LD6mo8FicKCUX0VWqbjVg_UyyZr36Z_sjQxIFGK6-5JOIk_Vmz6jhS2I70DPuGqFfMYdiUkRdJOEn5AJ5OWd9TJ6hHL3-29NemOs5jna9r1h08u7vK6thwlsxbqrdw7Ci_iPRlfRJIIDIwZlaPMFRrs_dMUKyuVw3oWCgqsgDZmJ1bPvvYvkTh0W6aXFLq0Xk-dbzdbrTbVpvOwV-G37xeyff-VKZY3SVENfsJqmtHODdSZhyG3k3nIqO-YM5eGBxs70-CJvXZu7-vXORStfi26rBDgAvmkKA5Ivogu3f56qavKZhnbw"
    }
  ]
}